{
  "name": "todo-models",
  "$schema": "../../../node_modules/nx/schemas/project-schema.json",
  "sourceRoot": "libs/todo/models/src",
  "projectType": "library",
  "targets": {
    "build": {
      "executor": "@nrwl/js:tsc",
      "outputs": ["{options.outputPath}"],
      "options": {
        "outputPath": "dist/libs/todo/models",
        "main": "libs/todo/models/src/index.ts",
        "tsConfig": "libs/todo/models/tsconfig.lib.json",
        "assets": ["libs/todo/models/*.md"]
      }
    },
    "lint": {
      "executor": "@nrwl/linter:eslint",
      "outputs": ["{options.outputFile}"],
      "options": {
        "lintFilePatterns": ["libs/todo/models/**/*.ts"]
      }
    }
  },
  "tags": []
}
